%YAML 1.1
%TAG !u! tag:unity3d.com,2011:
--- !u!21 &2100000
Material:
  serializedVersion: 6
  m_ObjectHideFlags: 0
  m_PrefabParentObject: {fileID: 0}
  m_PrefabInternal: {fileID: 0}
  m_Name: OutlineBasic
  m_Shader: {fileID: 4800000, guid: 0c1cf10ea69e60e4f9eb8955749f88ec, type: 3}
  m_ShaderKeywords: _EMISSION
  m_LightmapFlags: 1
  m_CustomRenderQueue: -1
  stringTagMap: {}
  m_SavedProperties:
    serializedVersion: 2
    m_TexEnvs: []
    m_Floats:
    - first:
        name: _Thickness
      second: 0.5
    - first:
        name: g_flOutlineWidth
      second: 0.005
    m_Colors:
    - first:
        name: _Color
      second: {r: 1, g: 0, b: 0, a: 1}
    - first:
        name: _OutlineColor
      second: {r: 1, g: 0, b: 0, a: 1}
    - first:
        name: g_vOutlineColor
      second: {r: 0.5, g: 0.5, b: 0.5, a: 1}
